PWD /Users/luketurcotte/Dropbox/Papers/2016/CUT_Program/Microteaching_2
INPUT /usr/local/texlive/2015/texmf.cnf
INPUT /usr/local/texlive/2015/texmf-dist/web2c/texmf.cnf
INPUT /usr/local/texlive/2015/texmf-var/web2c/xetex/xelatex.fmt
INPUT 20160615_MT2_LessonPlan.txt
OUTPUT latex.out/20160615_MT2_LessonPlan.log
INPUT /usr/local/texlive/2015/texmf-dist/tex/latex/base/article.cls
INPUT /usr/local/texlive/2015/texmf-dist/tex/latex/base/article.cls
INPUT /usr/local/texlive/2015/texmf-dist/tex/latex/base/size11.clo
INPUT /usr/local/texlive/2015/texmf-dist/tex/latex/base/size11.clo
INPUT /usr/local/texlive/2015/texmf-dist/fonts/map/fontname/texfonts.map
INPUT /usr/local/texlive/2015/texmf-dist/fonts/tfm/public/cm/cmr10.tfm
INPUT /usr/local/texlive/2015/texmf-dist/tex/latex/microtype/microtype.sty
INPUT /usr/local/texlive/2015/texmf-dist/tex/latex/microtype/microtype.sty
INPUT /usr/local/texlive/2015/texmf-dist/tex/latex/graphics/keyval.sty
INPUT /usr/local/texlive/2015/texmf-dist/tex/latex/graphics/keyval.sty
INPUT /usr/local/texlive/2015/texmf-dist/tex/latex/microtype/microtype-xetex.def
INPUT /usr/local/texlive/2015/texmf-dist/tex/latex/microtype/microtype-xetex.def
INPUT /usr/local/texlive/2015/texmf-dist/tex/latex/microtype/microtype.cfg
INPUT /usr/local/texlive/2015/texmf-dist/tex/latex/microtype/microtype.cfg
INPUT /usr/local/texlive/2015/texmf-dist/tex/latex/microtype/microtype.cfg
INPUT /usr/local/texlive/2015/texmf-dist/tex/latex/hyperref/hyperref.sty
INPUT /usr/local/texlive/2015/texmf-dist/tex/latex/hyperref/hyperref.sty
INPUT /usr/local/texlive/2015/texmf-dist/tex/generic/oberdiek/hobsub-hyperref.sty
INPUT /usr/local/texlive/2015/texmf-dist/tex/generic/oberdiek/hobsub-hyperref.sty
INPUT /usr/local/texlive/2015/texmf-dist/tex/generic/oberdiek/hobsub-hyperref.sty
INPUT /usr/local/texlive/2015/texmf-dist/tex/generic/oberdiek/hobsub-generic.sty
INPUT /usr/local/texlive/2015/texmf-dist/tex/generic/oberdiek/hobsub-generic.sty
INPUT /usr/local/texlive/2015/texmf-dist/tex/generic/ifxetex/ifxetex.sty
INPUT /usr/local/texlive/2015/texmf-dist/tex/generic/ifxetex/ifxetex.sty
INPUT /usr/local/texlive/2015/texmf-dist/tex/latex/oberdiek/auxhook.sty
INPUT /usr/local/texlive/2015/texmf-dist/tex/latex/oberdiek/auxhook.sty
INPUT /usr/local/texlive/2015/texmf-dist/tex/latex/oberdiek/kvoptions.sty
INPUT /usr/local/texlive/2015/texmf-dist/tex/latex/oberdiek/kvoptions.sty
INPUT /usr/local/texlive/2015/texmf-dist/tex/latex/hyperref/pd1enc.def
INPUT /usr/local/texlive/2015/texmf-dist/tex/latex/hyperref/pd1enc.def
INPUT /usr/local/texlive/2015/texmf-dist/tex/latex/latexconfig/hyperref.cfg
INPUT /usr/local/texlive/2015/texmf-dist/tex/latex/latexconfig/hyperref.cfg
INPUT /usr/local/texlive/2015/texmf-dist/tex/latex/url/url.sty
INPUT /usr/local/texlive/2015/texmf-dist/tex/latex/url/url.sty
INPUT /usr/local/texlive/2015/texmf-dist/fonts/tfm/adobe/zapfding/pzdr.tfm
INPUT /usr/local/texlive/2015/texmf-dist/tex/latex/hyperref/hxetex.def
INPUT /usr/local/texlive/2015/texmf-dist/tex/latex/hyperref/hxetex.def
INPUT /usr/local/texlive/2015/texmf-dist/tex/latex/hyperref/puenc.def
INPUT /usr/local/texlive/2015/texmf-dist/tex/latex/hyperref/puenc.def
INPUT /usr/local/texlive/2015/texmf-dist/tex/generic/oberdiek/stringenc.sty
INPUT /usr/local/texlive/2015/texmf-dist/tex/generic/oberdiek/stringenc.sty
INPUT /usr/local/texlive/2015/texmf-dist/tex/latex/oberdiek/rerunfilecheck.sty
INPUT /usr/local/texlive/2015/texmf-dist/tex/latex/oberdiek/rerunfilecheck.sty
INPUT /usr/local/texlive/2015/texmf-dist/tex/latex/wasysym/wasysym.sty
INPUT /usr/local/texlive/2015/texmf-dist/tex/latex/wasysym/wasysym.sty
INPUT /usr/local/texlive/2015/texmf-dist/tex/latex/titlesec/titlesec.sty
INPUT /usr/local/texlive/2015/texmf-dist/tex/latex/titlesec/titlesec.sty
INPUT /usr/local/texlive/2015/texmf-dist/tex/latex/parskip/parskip.sty
INPUT /usr/local/texlive/2015/texmf-dist/tex/latex/parskip/parskip.sty
INPUT /usr/local/texlive/2015/texmf-dist/tex/latex/caption/caption.sty
INPUT /usr/local/texlive/2015/texmf-dist/tex/latex/caption/caption.sty
INPUT /usr/local/texlive/2015/texmf-dist/tex/latex/caption/caption3.sty
INPUT /usr/local/texlive/2015/texmf-dist/tex/latex/caption/caption3.sty
INPUT /usr/local/texlive/2015/texmf-dist/tex/latex/caption/subcaption.sty
INPUT /usr/local/texlive/2015/texmf-dist/tex/latex/caption/subcaption.sty
INPUT /usr/local/texlive/2015/texmf-dist/tex/latex/setspace/setspace.sty
INPUT /usr/local/texlive/2015/texmf-dist/tex/latex/setspace/setspace.sty
INPUT /usr/local/texlive/2015/texmf-dist/tex/latex/tools/indentfirst.sty
INPUT /usr/local/texlive/2015/texmf-dist/tex/latex/tools/indentfirst.sty
INPUT /usr/local/texlive/2015/texmf-dist/tex/latex/geometry/geometry.sty
INPUT /usr/local/texlive/2015/texmf-dist/tex/latex/geometry/geometry.sty
INPUT /usr/local/texlive/2015/texmf-dist/tex/latex/graphics/graphicx.sty
INPUT /usr/local/texlive/2015/texmf-dist/tex/latex/graphics/graphicx.sty
INPUT /usr/local/texlive/2015/texmf-dist/tex/latex/graphics/graphics.sty
INPUT /usr/local/texlive/2015/texmf-dist/tex/latex/graphics/graphics.sty
INPUT /usr/local/texlive/2015/texmf-dist/tex/latex/graphics/trig.sty
INPUT /usr/local/texlive/2015/texmf-dist/tex/latex/graphics/trig.sty
INPUT /usr/local/texlive/2015/texmf-dist/tex/latex/latexconfig/graphics.cfg
INPUT /usr/local/texlive/2015/texmf-dist/tex/latex/latexconfig/graphics.cfg
INPUT /usr/local/texlive/2015/texmf-dist/tex/xelatex/xetex-def/xetex.def
INPUT /usr/local/texlive/2015/texmf-dist/tex/xelatex/xetex-def/xetex.def
INPUT /usr/local/texlive/2015/texmf-dist/tex/latex/booktabs/booktabs.sty
INPUT /usr/local/texlive/2015/texmf-dist/tex/latex/booktabs/booktabs.sty
INPUT /usr/local/texlive/2015/texmf-dist/tex/latex/tools/tabularx.sty
INPUT /usr/local/texlive/2015/texmf-dist/tex/latex/tools/tabularx.sty
INPUT /usr/local/texlive/2015/texmf-dist/tex/latex/tools/array.sty
INPUT /usr/local/texlive/2015/texmf-dist/tex/latex/tools/array.sty
INPUT /usr/local/texlive/2015/texmf-dist/tex/latex/multirow/multirow.sty
INPUT /usr/local/texlive/2015/texmf-dist/tex/latex/multirow/multirow.sty
INPUT /usr/local/texlive/2015/texmf-dist/tex/latex/tools/multicol.sty
INPUT /usr/local/texlive/2015/texmf-dist/tex/latex/tools/multicol.sty
INPUT /usr/local/texlive/2015/texmf-dist/tex/latex/csquotes/csquotes.sty
INPUT /usr/local/texlive/2015/texmf-dist/tex/latex/csquotes/csquotes.sty
INPUT /usr/local/texlive/2015/texmf-dist/tex/latex/etoolbox/etoolbox.sty
INPUT /usr/local/texlive/2015/texmf-dist/tex/latex/etoolbox/etoolbox.sty
INPUT /usr/local/texlive/2015/texmf-dist/tex/latex/csquotes/csquotes.def
INPUT /usr/local/texlive/2015/texmf-dist/tex/latex/csquotes/csquotes.def
INPUT /usr/local/texlive/2015/texmf-dist/tex/latex/csquotes/csquotes.cfg
INPUT /usr/local/texlive/2015/texmf-dist/tex/latex/csquotes/csquotes.cfg
INPUT /usr/local/texlive/2015/texmf-dist/tex/latex/enumitem/enumitem.sty
INPUT /usr/local/texlive/2015/texmf-dist/tex/latex/enumitem/enumitem.sty
INPUT /usr/local/texlive/2015/texmf-dist/tex/latex/amsfonts/amssymb.sty
INPUT /usr/local/texlive/2015/texmf-dist/tex/latex/amsfonts/amssymb.sty
INPUT /usr/local/texlive/2015/texmf-dist/tex/latex/amsfonts/amsfonts.sty
INPUT /usr/local/texlive/2015/texmf-dist/tex/latex/amsfonts/amsfonts.sty
INPUT /usr/local/texlive/2015/texmf-dist/tex/latex/psnfss/pifont.sty
INPUT /usr/local/texlive/2015/texmf-dist/tex/latex/psnfss/pifont.sty
INPUT /usr/local/texlive/2015/texmf-dist/tex/latex/psnfss/upzd.fd
INPUT /usr/local/texlive/2015/texmf-dist/tex/latex/psnfss/upzd.fd
INPUT /usr/local/texlive/2015/texmf-dist/fonts/tfm/adobe/zapfding/pzdr.tfm
INPUT /usr/local/texlive/2015/texmf-dist/tex/latex/psnfss/upsy.fd
INPUT /usr/local/texlive/2015/texmf-dist/tex/latex/psnfss/upsy.fd
INPUT /usr/local/texlive/2015/texmf-dist/fonts/tfm/adobe/symbol/psyr.tfm
INPUT latex.out/20160615_MT2_LessonPlan.aux
INPUT latex.out/20160615_MT2_LessonPlan.aux
OUTPUT latex.out/20160615_MT2_LessonPlan.aux
INPUT /usr/local/texlive/2015/texmf-dist/tex/latex/microtype/mt-cmr.cfg
INPUT /usr/local/texlive/2015/texmf-dist/tex/latex/microtype/mt-cmr.cfg
INPUT /usr/local/texlive/2015/texmf-dist/tex/latex/hyperref/nameref.sty
INPUT /usr/local/texlive/2015/texmf-dist/tex/latex/hyperref/nameref.sty
INPUT /usr/local/texlive/2015/texmf-dist/tex/generic/oberdiek/gettitlestring.sty
INPUT /usr/local/texlive/2015/texmf-dist/tex/generic/oberdiek/gettitlestring.sty
INPUT latex.out/20160615_MT2_LessonPlan.out
INPUT latex.out/20160615_MT2_LessonPlan.out
INPUT latex.out/20160615_MT2_LessonPlan.out
INPUT latex.out/20160615_MT2_LessonPlan.out
OUTPUT latex.out/20160615_MT2_LessonPlan.out
INPUT /usr/local/texlive/2015/texmf-dist/fonts/tfm/public/cm/cmbx10.tfm
INPUT /usr/local/texlive/2015/texmf-dist/fonts/tfm/public/cm/cmr8.tfm
INPUT /usr/local/texlive/2015/texmf-dist/fonts/tfm/public/cm/cmr6.tfm
INPUT /usr/local/texlive/2015/texmf-dist/fonts/tfm/public/cm/cmmi10.tfm
INPUT /usr/local/texlive/2015/texmf-dist/fonts/tfm/public/cm/cmmi8.tfm
INPUT /usr/local/texlive/2015/texmf-dist/fonts/tfm/public/cm/cmmi6.tfm
INPUT /usr/local/texlive/2015/texmf-dist/fonts/tfm/public/cm/cmsy10.tfm
INPUT /usr/local/texlive/2015/texmf-dist/fonts/tfm/public/cm/cmsy8.tfm
INPUT /usr/local/texlive/2015/texmf-dist/fonts/tfm/public/cm/cmsy6.tfm
INPUT /usr/local/texlive/2015/texmf-dist/fonts/tfm/public/cm/cmex10.tfm
INPUT /usr/local/texlive/2015/texmf-dist/fonts/tfm/public/amsfonts/cmextra/cmex8.tfm
INPUT /usr/local/texlive/2015/texmf-dist/fonts/tfm/public/amsfonts/cmextra/cmex7.tfm
INPUT /usr/local/texlive/2015/texmf-dist/tex/latex/wasysym/uwasy.fd
INPUT /usr/local/texlive/2015/texmf-dist/tex/latex/wasysym/uwasy.fd
INPUT /usr/local/texlive/2015/texmf-dist/fonts/tfm/public/wasy/wasy10.tfm
INPUT /usr/local/texlive/2015/texmf-dist/fonts/tfm/public/wasy/wasy8.tfm
INPUT /usr/local/texlive/2015/texmf-dist/fonts/tfm/public/wasy/wasy6.tfm
INPUT /usr/local/texlive/2015/texmf-dist/tex/latex/amsfonts/umsa.fd
INPUT /usr/local/texlive/2015/texmf-dist/tex/latex/amsfonts/umsa.fd
INPUT /usr/local/texlive/2015/texmf-dist/fonts/tfm/public/amsfonts/symbols/msam10.tfm
INPUT /usr/local/texlive/2015/texmf-dist/tex/latex/microtype/mt-msa.cfg
INPUT /usr/local/texlive/2015/texmf-dist/tex/latex/microtype/mt-msa.cfg
INPUT /usr/local/texlive/2015/texmf-dist/fonts/tfm/public/amsfonts/symbols/msam10.tfm
INPUT /usr/local/texlive/2015/texmf-dist/fonts/tfm/public/amsfonts/symbols/msam7.tfm
INPUT /usr/local/texlive/2015/texmf-dist/tex/latex/amsfonts/umsb.fd
INPUT /usr/local/texlive/2015/texmf-dist/tex/latex/amsfonts/umsb.fd
INPUT /usr/local/texlive/2015/texmf-dist/fonts/tfm/public/amsfonts/symbols/msbm10.tfm
INPUT /usr/local/texlive/2015/texmf-dist/tex/latex/microtype/mt-msb.cfg
INPUT /usr/local/texlive/2015/texmf-dist/tex/latex/microtype/mt-msb.cfg
INPUT /usr/local/texlive/2015/texmf-dist/fonts/tfm/public/amsfonts/symbols/msbm10.tfm
INPUT /usr/local/texlive/2015/texmf-dist/fonts/tfm/public/amsfonts/symbols/msbm7.tfm
INPUT /usr/local/texlive/2015/texmf-dist/fonts/tfm/public/cm/cmr12.tfm
INPUT /usr/local/texlive/2015/texmf-dist/fonts/tfm/adobe/zapfding/pzdr.tfm
INPUT /usr/local/texlive/2015/texmf-dist/fonts/tfm/public/amsfonts/cmextra/cmex7.tfm
INPUT /usr/local/texlive/2015/texmf-dist/fonts/tfm/public/amsfonts/cmextra/cmex7.tfm
INPUT /usr/local/texlive/2015/texmf-dist/fonts/tfm/public/wasy/wasy10.tfm
INPUT /usr/local/texlive/2015/texmf-dist/fonts/tfm/public/wasy/wasy7.tfm
INPUT /usr/local/texlive/2015/texmf-dist/fonts/tfm/public/wasy/wasy5.tfm
INPUT /usr/local/texlive/2015/texmf-dist/fonts/tfm/public/amsfonts/symbols/msam10.tfm
INPUT /usr/local/texlive/2015/texmf-dist/fonts/tfm/public/amsfonts/symbols/msam7.tfm
INPUT /usr/local/texlive/2015/texmf-dist/fonts/tfm/public/amsfonts/symbols/msam5.tfm
INPUT /usr/local/texlive/2015/texmf-dist/fonts/tfm/public/amsfonts/symbols/msbm10.tfm
INPUT /usr/local/texlive/2015/texmf-dist/fonts/tfm/public/amsfonts/symbols/msbm7.tfm
INPUT /usr/local/texlive/2015/texmf-dist/fonts/tfm/public/amsfonts/symbols/msbm5.tfm
INPUT /usr/local/texlive/2015/texmf-dist/fonts/tfm/public/cm/cmbx10.tfm
INPUT /usr/local/texlive/2015/texmf-dist/tex/latex/base/omscmr.fd
INPUT /usr/local/texlive/2015/texmf-dist/tex/latex/base/omscmr.fd
INPUT /usr/local/texlive/2015/texmf-dist/tex/generic/oberdiek/se-ascii-print.def
INPUT /usr/local/texlive/2015/texmf-dist/tex/generic/oberdiek/se-ascii-print.def
INPUT /usr/local/texlive/2015/texmf-dist/tex/generic/oberdiek/se-ascii-print.def
INPUT latex.out/20160615_MT2_LessonPlan.aux
